{
  "users": [
    {
      "email": "dima.pavlov0311@gmail.com",
      "firstName": "Dima",
      "lastName": "Pavlov",
      "phoneNumber": "+380994624754",
      "password": "goldvju81",
      "id": "b82ec3a8-d5ed-456e-83d2-8dcd64311724",
      "createdAt": "2021-12-25T20:16:31.961Z"
    }
  ],
  "fighters": [],
  "fights": []
}